{
  "label": "DBEnginePost",
  "url": "https://db-engines.com/en/systems",
  "next_page_xpath": "",
  "links_xpath": "//table[@class='list']//td/a",
  "fields": [
    {
      "name": "name",
      "xpath": "//td[@class='attribute' and contains(text(), 'Name')]/following-sibling::td//text()",
      "type": "simple"
    },
    {
      "name": "summary",
      "xpath": "//td[@class='attribute' and contains(text(), 'Description')]/following-sibling::td//text()",
      "type": "simple"
    },
    {
      "name": "score",
      "xpath": "//th[@class='dbi_mini' and contains(text(), 'Score')]/following-sibling::td/text()",
      "type": "simple"
    },
    {
      "name": "global_rank",
      "xpath": ".//table[@class='dbi_mini']//tr[2]/td/text()",
      "type": "simple"
    },
    {
      "name": "category_rank",
      "xpath": "//table[@class='dbi_mini']//tr[3]/td/text()",
      "type": "simple"
    },
    {
      "name": "homepage",
      "xpath": "//td[@class='attribute' and contains(text(), 'Website')]/following-sibling::td/a/@href",
      "type": "simple"
    },
    {
      "name": "documentation",
      "xpath": "//td[@class='attribute' and contains(text(), 'documentation')]/following-sibling::td/a/@href",
      "type": "simple"
    },
    {
      "name": "developer",
      "xpath": "//td[@class='attribute' and contains(text(), 'Developer')]/following-sibling::td/text()",
      "type": "simple"
    },
    {
      "name": "initial_release",
      "xpath": "//td[@class='attribute' and contains(text(), 'Initial release')]/following-sibling::td/text()",
      "type": "simple"
    },
    {
      "name": "latest_release",
      "xpath": "//td[@class='attribute' and contains(text(), 'Current release')]/following-sibling::td/text()",
      "type": "simple"
    },
    {
      "name": "license",
      "xpath": "//td[@class='attribute' and contains(text(), 'License')]/following-sibling::td/text()",
      "type": "simple"
    },
    {
      "name": "cloud_based",
      "xpath": "//td[@class='attribute' and contains(text(), 'Cloud-based')]/following-sibling::td/text()",
      "type": "simple"
    },
    {
      "name": "developed_languages",
      "xpath": "//td[@class='attribute' and contains(text(), 'Implementation language')]/following-sibling::td/text()",
      "type": "simple"
    },
    {
      "name": "operating_systems",
      "xpath": "//td[@class='attribute' and contains(text(), 'Server operating systems')]/following-sibling::td/text()",
      "type": "simple"
    },
    {
      "name": "data_scheme",
      "xpath": "//td[@class='attribute' and contains(text(), 'Data scheme')]/following-sibling::td/text()",
      "type": "simple"
    },
    {
      "name": "data_types",
      "xpath": "//td[@class='attribute' and contains(text(), 'Typing')]/following-sibling::td//text()",
      "type": "simple"
    },
    {
      "name": "xml_support",
      "xpath": "//td[@class='attribute' and contains(text(), 'XML support')]/following-sibling::td/text()",
      "type": "simple"
    },
    {
      "name": "sql_support",
      "xpath": "//td[@class='attribute' and contains(text(), 'SQL')]/following-sibling::td/text()",
      "type": "simple"
    },
    {
      "name": "access_methods",
      "xpath": "//td[@class='attribute' and contains(text(), 'access methods')]/following-sibling::td/text()",
      "type": "simple"
    },
    {
      "name": "drivers",
      "xpath": "//td[@class='attribute' and contains(text(), 'Supported programming languages')]/following-sibling::td",
      "type": "simple"
    },
    {
      "name": "partitioning_methods",
      "xpath": "//td[@class='attribute' and contains(text(), 'Partitioning methods')]/following-sibling::td/text()",
      "type": "simple"
    },
    {
      "name": "replication_methods",
      "xpath": "//td[@class='attribute' and contains(text(), 'Replication methods')]/following-sibling::td/text()",
      "type": "simple"
    },
    {
      "name": "consistency_methods",
      "xpath": "//td[@class='attribute' and contains(text(), 'Consistency concepts')]/following-sibling::td/text()",
      "type": "simple"
    },
    {
      "name": "transaction_methods",
      "xpath": "//td[@class='attribute' and contains(text(), 'Transaction concepts')]/following-sibling::td/text()",
      "type": "simple"
    },
    {
      "name": "concurrency",
      "xpath": "//td[@class='attribute' and contains(text(), 'Concurrency')]/following-sibling::td/text()",
      "type": "simple"
    },
    {
      "name": "durability",
      "xpath": "//td[@class='attribute' and contains(text(), 'Durability')]/following-sibling::td/text()",
      "type": "simple"
    },
    {
      "name": "uses",
      "xpath": "//td[@class='attribute external_att']/*[@id='a34']/../following-sibling::td//ul/li//text()",
      "type": "simple"
    }
  ]
}
