{
  "label": "NoSQL",
  "url": "https://en.wikipedia.org/wiki/Document-oriented_database",
  "root_xpath": "//table[contains(@class,'wikitable')]//tr[position() > 1]",
  "fields": [
    {
      "name": "dbpedia_uri",
      "xpath": "./td[1]/a[not(contains(@href, 'redlink'))]/@href",
      "type": "simple"
    },
    {
      "name": "name",
      "xpath": "./td[1]//text()",
      "type": "simple"
    },
    {
      "name": "developers",
      "xpath": "./td[2]",
      "type": "resources_group"
    },
    {
      "name": "licenses",
      "xpath": "./td[3]",
      "type": "resources_group"
    },
    {
      "name": "drivers",
      "xpath": "./td[4]",
      "type": "resources_group"
    },
    {
      "name": "keywords",
      "xpath": "./td[5]",
      "type": "resources_group"
    },
    {
      "name": "summary",
      "xpath": "./td[5]//text()",
      "type": "simple"
    },
    {
      "name": "REST_API",
      "xpath": ".//td[6]//text()",
      "type": "simple"
    },
    {
      "name": "datamodel",
      "dbpedia_uri": "Document-oriented_database",
      "name_resource": "document",
      "type": "value"
    }
  ]
}