{
  "label": "NoSQL",
  "url": "https://en.wikipedia.org/wiki/NoSQL",
  "root_xpath": "//*[@id='mw-content-text']//table[2]//tr[position()>1]",
  "fields": [
    {
      "name": "dbpedia_uri",
      "xpath": "./td[1]/a/@href",
      "type": "simple"
    },
    {
      "name": "name",
      "xpath": "./td[1]//text()",
      "type": "simple"
    },
    {
      "name": "drivers",
      "xpath": "./td[2]",
      "type": "resources_group"
    },
    {
      "name": "keywords",
      "xpath": "./td[3]",
      "type": "resources_group"
    },
    {
      "name": "datamodel",
      "dbpedia_uri": "Graph_database",
      "name_resource": "graph",
      "type": "value"
    }
  ]
}