{
  "label": "ProgrammingLanguage",
  "url": "https://en.wikipedia.org/wiki/Comparison_of_programming_languages",
  "root_xpath": "//table[3]//tr[position() > 1]//th[1]/a",
  "fields": [
    {
      "name": "dbpedia_uri",
      "xpath": "./@href",
      "type": "simple"
    },
    {
      "name": "name",
      "xpath": "./text()",
      "type": "simple"
    },
    {
      "name": "uses",
      "xpath": "./../../td[1]//text()",
      "type": "simple"
    }
  ]
}