{
  "label": "StacksharePost",
  "url": "https://stackshare.io/nosql-database-as-a-service",
  "next_page_xpath": "",
  "links_xpath": "//*[contains(text(), 'Learn more')]",
  "fields": [
    {
      "name": "name",
      "xpath": "//a[@itemprop='name']/text()",
      "type": "simple"
    },
    {
      "name": "repository",
      "xpath": "//a[@class='source-code-link']/@href",
      "type": "simple"
    },
    {
      "name": "summary",
      "xpath": "//span[@itemprop='alternativeHeadline']/text()",
      "type": "simple"
    },
    {
      "name": "favorite",
      "xpath": "//div[contains(@class, 'star-count')]/text()",
      "type": "simple"
    },
    {
      "name": "homepage",
      "xpath": "//a[@id='visit-website']/@href",
      "type": "simple"
    },
    {
      "name": "votes",
      "xpath": "//div[@itemprop='aggregateRating']/../text()",
      "type": "simple"
    },
    {
      "name": "fans",
      "xpath": "//div[contains(text(), 'Fans')]/../text()",
      "type": "simple"
    },
    {
      "name": "repository_stars",
      "xpath": "//div[@data-hint='GitHub Stars']//div[@class='gh-metric']/text()",
      "type": "simple"
    },
    {
      "name": "forks",
      "xpath": "//div[@data-hint='GitHub Forks']//div[@class='gh-metric']/text()",
      "type": "simple"
    },
    {
      "name": "description",
      "xpath": "//span[@itemprop='about']/text()",
      "type": "simple"
    },
    {
      "name": "comments",
      "xpath": "//div[@class='reason_item']",
      "type": "resource",
      "inner_xpaths": [
        {
          "name": "text",
          "xpath": ".//div[@id='reason-text']//text()"
        },
        {
          "name": "count",
          "xpath": ".//span[@class='reason-count']//text()"
        }
      ]
    },
    {
      "name": "clients",
      "xpath": "//div[@id='stacks']/../../following-sibling::div//div[contains(@class, 'stack-logo')]/a",
      "type": "resource",
      "inner_xpaths": [
        {
          "name": "name",
          "xpath": "./@data-hint"
        },
        {
          "name": "image",
          "xpath": "./img/@src"
        },
        {
          "name": "uri",
          "xpath": "./@href"
        }
      ]
    },
    {
      "name": "tools",
      "xpath": "//div[@class='similar-service-logos']//a[not(contains(@href, 'integrations'))]",
      "type": "resource",
      "inner_xpaths": [
        {
          "name": "name",
          "xpath": "./@data-hint"
        },
        {
          "name": "image",
          "xpath": "./img/@src"
        },
        {
          "name": "uri",
          "xpath": "./@href"
        }
      ]
    }
  ]
}