dbpedia_uri,name
Ruby_(programming_language),Ruby
Python_(programming_language),Python
C%2B%2B,C++
C_(programming_language),C
Scala_(programming_language),Scala
Perl,Perl
PHP,PHP
JavaScript,JavaScript
Java_(programming_language),Java
Haskell_(programming_language),Haskell
